^C:\USERS\ГЕОРГИЙ\DESKTOP\UK\WORK\YEAR 2\OBJECT ORIENTED PROGRAMMING\CW\CW\CW\MAIN.CPP
/c /ZI /nologo /W3 /WX- /diagnostics:classic /sdl /Od /Oy- /D WIN32 /D _DEBUG /D _CONSOLE /D _UNICODE /D UNICODE /Gm /EHsc /RTC1 /MDd /GS /fp:precise /permissive- /Zc:wchar_t /Zc:forScope /Zc:inline /Fo"DEBUG\\" /Fd"DEBUG\VC141.PDB" /Gd /TP /analyze- C:\USERS\ГЕОРГИЙ\DESKTOP\UK\WORK\YEAR 2\OBJECT ORIENTED PROGRAMMING\CW\CW\CW\MAIN.CPP
^C:\USERS\ГЕОРГИЙ\DESKTOP\UK\WORK\YEAR 2\OBJECT ORIENTED PROGRAMMING\CW\CW\CW\PLAYER.CPP
/c /ZI /nologo /W3 /WX- /diagnostics:classic /sdl /Od /Oy- /D WIN32 /D _DEBUG /D _CONSOLE /D _UNICODE /D UNICODE /Gm /EHsc /RTC1 /MDd /GS /fp:precise /permissive- /Zc:wchar_t /Zc:forScope /Zc:inline /Fo"DEBUG\\" /Fd"DEBUG\VC141.PDB" /Gd /TP /analyze- C:\USERS\ГЕОРГИЙ\DESKTOP\UK\WORK\YEAR 2\OBJECT ORIENTED PROGRAMMING\CW\CW\CW\PLAYER.CPP
^C:\USERS\ГЕОРГИЙ\DESKTOP\UK\WORK\YEAR 2\OBJECT ORIENTED PROGRAMMING\CW\CW\CW\ADVENTURE.CPP
/c /ZI /nologo /W3 /WX- /diagnostics:classic /sdl /Od /Oy- /D WIN32 /D _DEBUG /D _CONSOLE /D _UNICODE /D UNICODE /Gm /EHsc /RTC1 /MDd /GS /fp:precise /permissive- /Zc:wchar_t /Zc:forScope /Zc:inline /Fo"DEBUG\\" /Fd"DEBUG\VC141.PDB" /Gd /TP /analyze- C:\USERS\ГЕОРГИЙ\DESKTOP\UK\WORK\YEAR 2\OBJECT ORIENTED PROGRAMMING\CW\CW\CW\ADVENTURE.CPP
^C:\USERS\ГЕОРГИЙ\DESKTOP\UK\WORK\YEAR 2\OBJECT ORIENTED PROGRAMMING\CW\CW\CW\ADVENTUREROOM.CPP
/c /ZI /nologo /W3 /WX- /diagnostics:classic /sdl /Od /Oy- /D WIN32 /D _DEBUG /D _CONSOLE /D _UNICODE /D UNICODE /Gm /EHsc /RTC1 /MDd /GS /fp:precise /permissive- /Zc:wchar_t /Zc:forScope /Zc:inline /Fo"DEBUG\\" /Fd"DEBUG\VC141.PDB" /Gd /TP /analyze- C:\USERS\ГЕОРГИЙ\DESKTOP\UK\WORK\YEAR 2\OBJECT ORIENTED PROGRAMMING\CW\CW\CW\ADVENTUREROOM.CPP
^C:\USERS\GOSHA\DESKTOP\UK\WORK\YEAR2\OBJECT ORIENTED PROGRAMMING\CW\CW\CW\ADVENTURE.CPP
/c /ZI /JMC /nologo /W3 /WX- /diagnostics:classic /sdl /Od /Oy- /D WIN32 /D _DEBUG /D _CONSOLE /D _UNICODE /D UNICODE /Gm- /EHsc /RTC1 /MDd /GS /fp:precise /permissive- /Zc:wchar_t /Zc:forScope /Zc:inline /Fo"DEBUG\\" /Fd"DEBUG\VC141.PDB" /Gd /TP /analyze- /FC C:\USERS\GOSHA\DESKTOP\UK\WORK\YEAR2\OBJECT ORIENTED PROGRAMMING\CW\CW\CW\ADVENTURE.CPP
^C:\USERS\GOSHA\DESKTOP\UK\WORK\YEAR2\OBJECT ORIENTED PROGRAMMING\CW\CW\CW\ADVENTUREROOM.CPP
/c /ZI /JMC /nologo /W3 /WX- /diagnostics:classic /sdl /Od /Oy- /D WIN32 /D _DEBUG /D _CONSOLE /D _UNICODE /D UNICODE /Gm- /EHsc /RTC1 /MDd /GS /fp:precise /permissive- /Zc:wchar_t /Zc:forScope /Zc:inline /Fo"DEBUG\\" /Fd"DEBUG\VC141.PDB" /Gd /TP /analyze- /FC C:\USERS\GOSHA\DESKTOP\UK\WORK\YEAR2\OBJECT ORIENTED PROGRAMMING\CW\CW\CW\ADVENTUREROOM.CPP
^C:\USERS\GOSHA\DESKTOP\UK\WORK\YEAR2\OBJECT ORIENTED PROGRAMMING\CW\CW\CW\PLAYER.CPP
/c /ZI /JMC /nologo /W3 /WX- /diagnostics:classic /sdl /Od /Oy- /D WIN32 /D _DEBUG /D _CONSOLE /D _UNICODE /D UNICODE /Gm- /EHsc /RTC1 /MDd /GS /fp:precise /permissive- /Zc:wchar_t /Zc:forScope /Zc:inline /Fo"DEBUG\\" /Fd"DEBUG\VC141.PDB" /Gd /TP /analyze- /FC C:\USERS\GOSHA\DESKTOP\UK\WORK\YEAR2\OBJECT ORIENTED PROGRAMMING\CW\CW\CW\PLAYER.CPP
^C:\USERS\GOSHA\DESKTOP\UK\WORK\YEAR2\OBJECT ORIENTED PROGRAMMING\CW\CW\CW\MAIN.CPP
/c /ZI /JMC /nologo /W3 /WX- /diagnostics:classic /sdl /Od /Oy- /D WIN32 /D _DEBUG /D _CONSOLE /D _UNICODE /D UNICODE /Gm- /EHsc /RTC1 /MDd /GS /fp:precise /permissive- /Zc:wchar_t /Zc:forScope /Zc:inline /Fo"DEBUG\\" /Fd"DEBUG\VC141.PDB" /Gd /TP /analyze- /FC C:\USERS\GOSHA\DESKTOP\UK\WORK\YEAR2\OBJECT ORIENTED PROGRAMMING\CW\CW\CW\MAIN.CPP
